…
## `gather()`

<img style="WIDTH:2600px; HEIGHT:400px; border:0" src="./figs/tidy-9.png">


## `spread()`

Usamos `spread(data, key, value)` cuando tenemos una observación distribuida en varias filas. 

Asociamos `key` a la variable que contiene valores de variable y `value` a la variable que contiene valores de distintas variables.

    table2
    #> # A tibble: 12 × 4
    #>       country  year       type     count
    #> 1 Afghanistan  1999      cases       745
    #> 2 Afghanistan  1999 population  19987071
    #> 3 Afghanistan  2000      cases      2666
    #> 4 Afghanistan  2000 population  20595360
    #> 5      Brazil  1999      cases     37737
    #> 6      Brazil  1999 population 172006362
    #> # ... with 6 more rows
…
